<svg viewBox="0 0 240 70" version="1.1" xmlns="http://www.w3.org/2000/svg" xmlns:xlink="http://www.w3.org/1999/xlink">
    <g id="Symbols" stroke="none" stroke-width="1" fill="none" fill-rule="evenodd">
        <g id="Top-Navigation-/-Desktop" transform="translate(-600.000000, -32.000000)" fill="#000000">
            <g id="Top-Navigation">
                <g id="Logo" transform="translate(600.000000, 32.000000)">
                    <g id="Tag-Line" transform="translate(84.000000, 61.000000)">
                        <polygon id="Fill-18" points="1.52727667 0.810508333 2.80877667 4.79427619 4.19257667 0.810508333 5.43667667 0.810508333 5.43667667 8.77804405 4.46317667 8.77804405 4.46317667 5.59793095 4.54457667 2.27088929 3.08927667 6.56187143 2.51617667 6.56187143 1.18077667 2.38665119 1.26217667 5.59793095 1.26217667 8.77804405 0.288676667 8.77804405 0.288676667 0.810508333"></polygon>
                        <path d="M9.15159667,8.00588988 C9.34629667,8.00588988 9.52889667,7.98140179 9.69829667,7.92908631 C9.86659667,7.87788393 10.0216967,7.80998512 10.1602967,7.72761607 C10.2988967,7.64302083 10.4187967,7.54729464 10.5199967,7.4404375 C10.6211967,7.33246726 10.6992967,7.21893155 10.7575967,7.10316964 L10.7575967,5.90436607 L9.82809667,5.90436607 C9.24289667,5.90436607 8.78859667,5.9923006 8.46409667,6.16705655 C8.14069667,6.3429256 7.97789667,6.61786012 7.97789667,6.99408631 C7.97789667,7.13990179 8.00209667,7.27458631 8.05159667,7.39925298 C8.09889667,7.52280655 8.17259667,7.62966369 8.27049667,7.71871131 C8.36729667,7.80775893 8.49049667,7.87788393 8.63789667,7.92908631 C8.78529667,7.98140179 8.95689667,8.00588988 9.15159667,8.00588988 L9.15159667,8.00588988 Z M10.9192967,8.77726488 C10.8807967,8.7015744 10.8488967,8.60473512 10.8246967,8.4911994 C10.8015967,8.3754375 10.7839967,8.25633631 10.7740967,8.13166964 C10.6728967,8.2340744 10.5606967,8.33091369 10.4352967,8.4221875 C10.3120967,8.51234821 10.1745967,8.59360417 10.0238967,8.66261607 C9.87539667,8.73162798 9.71589667,8.78616964 9.54649667,8.82624107 C9.37709667,8.8674256 9.19669667,8.88746131 9.00529667,8.88746131 C8.69509667,8.88746131 8.41569667,8.84071131 8.16489667,8.7494375 C7.91409667,8.65927679 7.70179667,8.53572321 7.52579667,8.38100298 C7.35199667,8.22516964 7.21669667,8.04150893 7.12099667,7.82779464 C7.02529667,7.61519345 6.97799667,7.38366964 6.97799667,7.1354494 C6.97799667,6.81153869 7.04179667,6.52658631 7.16939667,6.28281845 C7.29699667,6.0379375 7.47849667,5.83424107 7.71279667,5.67172917 C7.94709667,5.51033036 8.22979667,5.38900298 8.55979667,5.30886012 C8.88869667,5.22760417 9.25829667,5.18753274 9.66529667,5.18753274 L10.7575967,5.18753274 L10.7575967,4.72337202 C10.7575967,4.54527679 10.7256967,4.38387798 10.6607967,4.24140179 C10.5947967,4.0989256 10.5034967,3.97759821 10.3846967,3.87741964 C10.2658967,3.77724107 10.1195967,3.6993244 9.94909667,3.64478274 C9.77749667,3.59024107 9.58609667,3.56241369 9.37379667,3.56241369 C9.17469667,3.56241369 8.99649667,3.58801488 8.84139667,3.63921726 C8.68299667,3.69153274 8.55099667,3.75831845 8.44319667,3.8418006 C8.33539667,3.92528274 8.25069667,4.02546131 8.19239667,4.14011012 C8.13189667,4.25587202 8.10219667,4.37386012 8.10219667,4.49852679 L7.09679667,4.49852679 C7.10119667,4.2836994 7.15619667,4.07109821 7.26179667,3.8640625 C7.36739667,3.65591369 7.52139667,3.46891369 7.72049667,3.3030625 C7.92179667,3.13609821 8.16489667,3.00363988 8.45199667,2.90123512 C8.73799667,2.79883036 9.06359667,2.74762798 9.42659667,2.74762798 C9.75879667,2.74762798 10.0667967,2.7888125 10.3516967,2.87006845 C10.6376967,2.9524375 10.8829967,3.07710417 11.0908967,3.24184226 C11.2976967,3.40880655 11.4604967,3.61584226 11.5792967,3.8640625 C11.6980967,4.11116964 11.7585967,4.4028006 11.7585967,4.73450298 L11.7585967,7.4860744 C11.7585967,7.68309226 11.7761967,7.89124107 11.8113967,8.11274702 C11.8487967,8.33313988 11.8982967,8.52570536 11.9631967,8.69044345 L11.9631967,8.77726488 L10.9192967,8.77726488 Z" id="Fill-19"></path>
                        <path d="M14.5318067,5.88299464 C14.5318067,6.17017321 14.5626067,6.44399464 14.6231067,6.70334583 C14.6847067,6.96381012 14.7804067,7.19088155 14.9069067,7.3878994 C15.0356067,7.58491726 15.1984067,7.7396375 15.3975067,7.8553994 C15.5955067,7.97004821 15.8342067,8.02792917 16.1114067,8.02792917 C16.2797067,8.02792917 16.4337067,8.00789345 16.5712067,7.96782202 C16.7076067,7.9277506 16.8319067,7.86986964 16.9430067,7.79529226 C17.0552067,7.72071488 17.1542067,7.63055417 17.2411067,7.5281494 C17.3280067,7.42240536 17.4028067,7.30664345 17.4677067,7.1797506 L17.4677067,4.43263155 C17.3379067,4.19220298 17.1641067,3.99407202 16.9430067,3.83935179 C16.7230067,3.68351845 16.4502067,3.60671488 16.1213067,3.60671488 C15.8397067,3.60671488 15.5999067,3.66459583 15.4008067,3.78147083 C15.1995067,3.89945893 15.0356067,4.05640536 14.9069067,4.2556494 C14.7804067,4.45378036 14.6847067,4.68419107 14.6231067,4.94465536 C14.5626067,5.20511964 14.5318067,5.48005417 14.5318067,5.76723274 L14.5318067,5.88299464 Z M13.5319067,5.76723274 C13.5319067,5.32644702 13.5869067,4.92016726 13.6958067,4.55061964 C13.8069067,4.18107202 13.9631067,3.86161369 14.1666067,3.59558393 C14.3712067,3.33066726 14.6165067,3.12251845 14.9047067,2.9722506 C15.1929067,2.82198274 15.5163067,2.74740536 15.8727067,2.74740536 C16.2236067,2.74740536 16.5283067,2.8075125 16.7890067,2.9255006 C17.0508067,3.04348869 17.2774067,3.21601845 17.4677067,3.44308988 L17.4677067,0.373173214 L18.4687067,0.373173214 L18.4687067,8.77815536 L17.5491067,8.77815536 L17.5062067,8.15370893 C17.3115067,8.3941375 17.0783067,8.57668512 16.8088067,8.70135179 C16.5382067,8.82490536 16.2236067,8.88723869 15.8617067,8.88723869 C15.5097067,8.88723869 15.1885067,8.81043512 14.9025067,8.65682798 C14.6154067,8.50322083 14.3712067,8.29173274 14.1699067,8.02236369 C13.9675067,7.75299464 13.8113067,7.43353631 13.6991067,7.06732798 C13.5869067,6.70000655 13.5319067,6.30597083 13.5319067,5.88299464 L13.5319067,5.76723274 Z" id="Fill-20"></path>
                        <path d="M22.8215167,3.57911012 C22.6191167,3.57911012 22.4288167,3.61695536 22.2484167,3.69153274 C22.0680167,3.76611012 21.9063167,3.87630655 21.7611167,4.01989583 C21.6170167,4.16348512 21.4960167,4.34046726 21.3970167,4.55084226 C21.2969167,4.76121726 21.2276167,5.00164583 21.1880167,5.27546726 L24.3351167,5.27546726 L24.3351167,5.19866369 C24.3252167,5.00164583 24.2878167,4.80796726 24.2240167,4.6131756 C24.1613167,4.41949702 24.0689167,4.24696726 23.9457167,4.09336012 C23.8236167,3.94086607 23.6696167,3.8161994 23.4848167,3.72158631 C23.2978167,3.62697321 23.0767167,3.57911012 22.8215167,3.57911012 M22.9513167,8.88746131 C22.5399167,8.88746131 22.1626167,8.81622321 21.8183167,8.67374702 C21.4740167,8.53127083 21.1792167,8.33313988 20.9339167,8.07712798 C20.6897167,7.82222917 20.4983167,7.51946726 20.3608167,7.16884226 C20.2244167,6.81933036 20.1562167,6.43753869 20.1562167,6.02569345 L20.1562167,5.79528274 C20.1562167,5.31776488 20.2310167,4.89033631 20.3828167,4.51188393 C20.5335167,4.13565774 20.7348167,3.81508631 20.9867167,3.55573512 C21.2364167,3.29415774 21.5202167,3.0938006 21.8403167,2.95577679 C22.1582167,2.81663988 22.4860167,2.74762798 22.8215167,2.74762798 C23.2428167,2.74762798 23.6113167,2.82220536 23.9270167,2.96913393 C24.2427167,3.1171756 24.5045167,3.32198512 24.7146167,3.58133631 C24.9236167,3.84291369 25.0787167,4.15124107 25.1821167,4.50409226 C25.2844167,4.85694345 25.3361167,5.24096131 25.3361167,5.65280655 L25.3361167,6.1069494 L21.1561167,6.1069494 C21.1671167,6.37743155 21.2177167,6.63010417 21.3101167,6.86830655 C21.4014167,7.10539583 21.5279167,7.31243155 21.6885167,7.4883006 C21.8491167,7.66528274 22.0416167,7.80553274 22.2649167,7.9079375 C22.4882167,8.00922917 22.7346167,8.06043155 23.0052167,8.06043155 C23.3627167,8.06043155 23.6795167,7.98696726 23.9567167,7.84226488 C24.2339167,7.6964494 24.4649167,7.50277083 24.6497167,7.26234226 L25.2602167,7.7431994 C25.1623167,7.89346726 25.0413167,8.03594345 24.8950167,8.17285417 C24.7498167,8.30976488 24.5804167,8.43109226 24.3890167,8.53683631 C24.1987167,8.64258036 23.9820167,8.7271756 23.7400167,8.79062202 C23.4991167,8.85518155 23.2362167,8.88746131 22.9513167,8.88746131" id="Fill-21"></path>
                        <path d="M35.6745767,1.30294167 C35.6745767,1.13486429 35.7240767,0.994614286 35.8241767,0.878852381 C35.9231767,0.764203571 36.0727767,0.706322619 36.2751767,0.706322619 C36.4731767,0.706322619 36.6227767,0.764203571 36.7239767,0.878852381 C36.8251767,0.994614286 36.8746767,1.13486429 36.8746767,1.30294167 C36.8746767,1.46656667 36.8251767,1.60459048 36.7239767,1.71367381 C36.6227767,1.82275714 36.4731767,1.87729881 36.2751767,1.87729881 C36.0727767,1.87729881 35.9231767,1.82275714 35.8241767,1.71367381 C35.7240767,1.60459048 35.6745767,1.46656667 35.6745767,1.30294167 L35.6745767,1.30294167 Z M33.8144767,2.85682262 L36.8053767,2.85682262 L36.8053767,7.90248333 L38.7138767,7.90248333 L38.7138767,8.77737619 L33.8144767,8.77737619 L33.8144767,7.90248333 L35.8043767,7.90248333 L35.8043767,3.73839405 L33.8144767,3.73839405 L33.8144767,2.85682262 Z" id="Fill-22"></path>
                        <path d="M41.2008667,2.85682262 L41.2712667,3.73282857 C41.4835667,3.42672738 41.7453667,3.18629881 42.0555667,3.01265595 C42.3657667,2.84012619 42.7111667,2.75107857 43.0939667,2.74773929 C43.4008667,2.74773929 43.6780667,2.79115 43.9288667,2.87908452 C44.1796667,2.96701905 44.3930667,3.10281667 44.5701667,3.28981667 C44.7472667,3.47570357 44.8825667,3.71167976 44.9782667,3.99774524 C45.0739667,4.28492381 45.1212667,4.62441786 45.1212667,5.01845357 L45.1212667,8.77737619 L44.1213667,8.77737619 L44.1213667,5.03960238 C44.1213667,4.778025 44.0927667,4.55540595 44.0344667,4.37285833 C43.9761667,4.19031071 43.8903667,4.04226905 43.7781667,3.92984643 C43.6637667,3.81631071 43.5251667,3.73505476 43.3612667,3.68385238 C43.1973667,3.6315369 43.0092667,3.60704881 42.7958667,3.60704881 C42.4614667,3.60704881 42.1666667,3.69164405 41.9114667,3.86194762 C41.6584667,4.030025 41.4549667,4.25375714 41.3042667,4.53091786 L41.3042667,8.77737619 L40.3032667,8.77737619 L40.3032667,2.85682262 L41.2008667,2.85682262 Z" id="Fill-23"></path>
                        <polygon id="Fill-24" points="58.5264167 8.77771012 57.5100167 8.77771012 54.4542167 2.82376369 54.4388167 8.77771012 53.4268167 8.77771012 53.4268167 0.810174405 54.4443167 0.810174405 57.4990167 6.75298988 57.5155167 0.810174405 58.5264167 0.810174405"></polygon>
                        <polygon id="Fill-25" points="62.5601167 4.81063869 64.3553167 0.810174405 65.4916167 0.810174405 63.0408167 5.80685893 63.0254167 8.77771012 62.0948167 8.77771012 62.0794167 5.80685893 59.6297167 0.810174405 60.7704167 0.810174405"></polygon>
                        <path d="M71.9853567,6.38088214 C71.9380567,6.74931667 71.8445567,7.08769762 71.7037567,7.396025 C71.5640567,7.70435238 71.3803567,7.96815595 71.1548567,8.1896619 C70.9304567,8.41005476 70.6631567,8.58147143 70.3551567,8.70279881 C70.0471567,8.82635238 69.7028567,8.88645952 69.3255567,8.88645952 C69.0010567,8.88645952 68.7062567,8.84082262 68.4400567,8.74620952 C68.1760567,8.65493571 67.9395567,8.52581667 67.7327567,8.36107857 C67.5248567,8.19745357 67.3466567,8.003775 67.1959567,7.78115595 C67.0474567,7.5585369 66.9231567,7.31699524 66.8241567,7.05319167 C66.7251567,6.79161429 66.6514567,6.51667976 66.6019567,6.227275 C66.5546567,5.93898333 66.5282567,5.64735238 66.5238567,5.35238214 L66.5238567,4.2415131 C66.5282567,3.94542976 66.5546567,3.65379881 66.6019567,3.36662024 C66.6514567,3.07832857 66.7251567,2.80228095 66.8241567,2.53959048 C66.9231567,2.2769 67.0474567,2.03424524 67.1959567,1.8094 C67.3466567,1.58566786 67.5248567,1.39087619 67.7327567,1.2261381 C67.9395567,1.0625131 68.1749567,0.933394048 68.4378567,0.841007143 C68.7018567,0.747507143 68.9966567,0.700757143 69.3255567,0.700757143 C69.7182567,0.700757143 70.0691567,0.761977381 70.3793567,0.885530952 C70.6895567,1.00685833 70.9557567,1.18050119 71.1801567,1.40423333 C71.4034567,1.62907857 71.5827567,1.89844762 71.7169567,2.21122738 C71.8533567,2.52512024 71.9413567,2.87240595 71.9853567,3.25085833 L70.9843567,3.25085833 C70.9524567,3.01042976 70.8974567,2.78669762 70.8171567,2.57743571 C70.7379567,2.3692869 70.6323567,2.18673929 70.4981567,2.03090595 C70.3650567,1.87507262 70.2011567,1.75040595 70.0086567,1.66247143 C69.8161567,1.57231071 69.5884567,1.5277869 69.3255567,1.5277869 C69.0868567,1.5277869 68.8767567,1.56674524 68.6952567,1.6446619 C68.5126567,1.72369167 68.3564567,1.83054881 68.2244567,1.96523333 C68.0924567,2.09991786 67.9835567,2.25686429 67.8955567,2.43607262 C67.8064567,2.61416786 67.7349567,2.80450714 67.6810567,3.00486429 C67.6271567,3.20410833 67.5886567,3.41114405 67.5644567,3.62151905 C67.5413567,3.82966786 67.5292567,4.03336429 67.5292567,4.23038214 L67.5292567,5.35238214 C67.5292567,5.5494 67.5413567,5.75309643 67.5644567,5.96347143 C67.5886567,6.17273333 67.6271567,6.37865595 67.6810567,6.58012619 C67.7349567,6.78382262 67.8053567,6.9741619 67.8922567,7.15225714 C67.9780567,7.33035238 68.0880567,7.4884119 68.2222567,7.62643571 C68.3553567,7.76223333 68.5126567,7.87020357 68.6919567,7.94812024 C68.8723567,8.02715 69.0835567,8.06610833 69.3255567,8.06610833 C69.5884567,8.06610833 69.8161567,8.02492381 70.0086567,7.94032857 C70.2011567,7.85573333 70.3650567,7.73885833 70.4981567,7.58636429 C70.6323567,7.43609643 70.7379567,7.2568881 70.8171567,7.05096548 C70.8974567,6.84504286 70.9524567,6.62131071 70.9843567,6.38088214 L71.9853567,6.38088214 Z" id="Fill-26"></path>
                    </g>
                    <g id="Brand-Name">
                        <polygon id="Fill-1" points="20.6466 1 17.8956 12.2430714 13.9428 1 10.6302 1 6.6774 12.2430714 3.9258 1 0 1 4.6476 19.9197857 7.986 19.9197857 12.2862 7.70225 16.56 19.9197857 19.926 19.9197857 24.573 1"></polygon>
                        <path d="M33.01464,9.20191786 C31.27884,9.20191786 29.72964,10.7428464 29.72964,12.742775 C29.72964,14.7427036 31.25184,16.2836321 33.01464,16.2836321 C34.77744,16.2836321 36.30024,14.7159893 36.30024,12.742775 C36.30024,10.7428464 34.77744,9.20191786 33.01464,9.20191786 Z M33.01464,19.7431321 C29.14164,19.7431321 26.07024,16.580525 26.07024,12.742775 C26.07024,8.87770357 29.19504,5.74241786 33.01464,5.74241786 C36.86124,5.74241786 39.95904,8.905025 39.95904,12.742775 C39.95904,16.5538107 36.88764,19.7431321 33.01464,19.7431321 Z" id="Fill-2"></path>
                        <polygon id="Fill-4" points="43.1118 19.52705 46.7712 19.52705 46.7712 0.607264286 43.1118 0.607264286"></polygon>
                        <path d="M63.0375,16.6076643 C61.9689,18.39145 59.5917,19.7696643 57.1881,19.7696643 C53.2881,19.7696643 50.1369,16.6076643 50.1369,12.6885571 C50.1369,8.95887857 53.1543,5.60745 57.1881,5.60745 C59.4315,5.60745 61.6749,6.82355714 62.7441,8.36387857 L60.1797,10.8240214 C59.5119,9.57998571 58.3629,9.03962857 57.1881,9.03962857 C55.3449,9.03962857 53.7957,10.7153429 53.7957,12.6885571 C53.7957,14.7698429 55.3719,16.3648071 57.1881,16.3648071 C58.4703,16.3648071 59.6451,15.7424857 60.3129,14.3642714 L63.0375,16.6076643 Z" id="Fill-6"></path>
                        <path d="M71.69178,9.20191786 C69.95538,9.20191786 68.40678,10.7428464 68.40678,12.742775 C68.40678,14.7427036 69.92898,16.2836321 71.69178,16.2836321 C73.45458,16.2836321 74.97738,14.7159893 74.97738,12.742775 C74.97738,10.7428464 73.45458,9.20191786 71.69178,9.20191786 M71.69178,19.7431321 C67.81878,19.7431321 64.74738,16.580525 64.74738,12.742775 C64.74738,8.87770357 67.87218,5.74241786 71.69178,5.74241786 C75.53838,5.74241786 78.63678,8.905025 78.63678,12.742775 C78.63678,16.5538107 75.56478,19.7431321 71.69178,19.7431321" id="Fill-7"></path>
                        <path d="M89.69502,18.4996429 C89.32122,18.8511786 88.33242,19.6623214 86.27622,19.6623214 C83.20482,19.6623214 82.43022,17.6885 82.43022,16.1481786 L82.43022,8.87764286 L80.72022,8.87764286 L80.72022,5.85042857 L82.43022,5.85042857 L82.43022,0.607142857 L86.08902,0.607142857 L86.08902,5.85042857 L89.53482,5.85042857 L89.53482,8.87764286 L86.08902,8.87764286 L86.08902,15.0941786 C86.08902,15.878 86.11602,16.5804643 87.07782,16.5804643 C87.71862,16.5804643 88.11942,16.4183571 88.46622,16.1214643 L89.69502,18.4996429 Z" id="Fill-8"></path>
                        <path d="M101.12724,18.4996429 C100.75344,18.8511786 99.76464,19.6623214 97.70844,19.6623214 C94.63704,19.6623214 93.86244,17.6885 93.86244,16.1481786 L93.86244,8.87764286 L92.15304,8.87764286 L92.15304,5.85042857 L93.86244,5.85042857 L93.86244,0.607142857 L97.52124,0.607142857 L97.52124,5.85042857 L100.96704,5.85042857 L100.96704,8.87764286 L97.52124,8.87764286 L97.52124,15.0941786 C97.52124,15.878 97.54824,16.5804643 98.51004,16.5804643 C99.15084,16.5804643 99.55164,16.4183571 99.89904,16.1214643 L101.12724,18.4996429 Z" id="Fill-9"></path>
                        <polygon id="Fill-10" points="117.68814 19.5268679 117.68814 4.17465357 112.50654 4.17465357 112.50654 0.607082143 126.66294 0.607082143 126.66294 4.17465357 121.50774 4.17465357 121.50774 19.5268679"></polygon>
                        <path d="M130.85712,15.1752321 C130.85712,15.7155893 131.28492,16.2565536 132.27312,16.2565536 C133.98252,16.2565536 135.02412,15.2559821 135.13092,13.7964107 C134.65032,13.661625 134.00892,13.580875 133.50192,13.580875 C131.84532,13.580875 130.85712,14.0131607 130.85712,15.1752321 L130.85712,15.1752321 Z M128.23992,8.52641071 C129.22812,7.120875 130.88412,5.769375 133.47492,5.769375 C136.38612,5.769375 138.79032,7.796625 138.79032,10.9045893 L138.79032,19.526625 L135.13092,19.526625 L135.13092,18.553375 C134.65032,19.1216607 133.74192,19.6620179 132.16632,19.6620179 C128.90712,19.6620179 127.46532,17.3105536 127.46532,15.391375 C127.46532,11.9859107 130.02972,10.9045893 132.86052,10.9045893 C133.68852,10.9045893 134.54352,11.0399821 135.13092,11.2020893 L135.13092,10.9045893 C135.13092,9.76983929 134.51652,8.93198214 133.47492,8.93198214 C132.27312,8.93198214 131.49852,9.66116071 130.72392,10.797125 L128.23992,8.52641071 Z" id="Fill-11"></path>
                        <polygon id="Fill-12" points="142.66404 19.5268679 142.66404 0.607082143 146.32344 0.607082143 146.32344 8.68815357 149.90244 5.85036786 155.43144 5.85036786 149.82264 10.364475 155.48484 19.5268679 151.26444 19.5268679 146.99064 12.6345821 146.32344 13.1749393 146.32344 19.5268679"></polygon>
                        <path d="M166.27674,10.6886286 C166.35654,9.82345 165.31494,8.66137857 163.92594,8.66137857 C162.43014,8.66137857 161.44194,9.55327143 161.12154,10.6886286 L166.27674,10.6886286 Z M169.72194,16.6343786 C168.65394,18.4454857 166.75734,19.8243071 163.95234,19.8243071 C159.35874,19.8243071 157.14174,16.2027 157.14174,12.7425929 C157.14174,9.28309286 159.41214,5.66148571 163.92594,5.66148571 C165.90234,5.66148571 167.45154,6.47202143 168.46674,7.71545 C169.48194,8.98559286 170.01594,10.6345929 169.58874,13.6077714 L160.80114,13.6077714 C160.80114,15.5536643 162.10974,16.4995929 163.95234,16.4995929 C165.52854,16.4995929 166.59714,15.5536643 166.94454,14.3642714 L169.72194,16.6343786 Z" id="Fill-13"></path>
                        <path d="M177.57564,6.66157143 C178.29684,6.09328571 179.20464,5.71503571 180.30024,5.71503571 C182.06304,5.71503571 183.47844,6.39078571 184.46664,7.47210714 C185.37504,6.47214286 186.73704,5.74235714 188.71344,5.74235714 C192.18624,5.74235714 194.53644,8.22921429 194.53644,11.5266071 L194.53644,19.5269286 L190.87704,19.5269286 L190.87704,11.5266071 C190.87704,10.013 189.99564,9.12110714 188.58024,9.12110714 C187.53804,9.12110714 186.49644,9.7155 185.96244,10.9589286 C185.98884,11.1750714 185.98884,11.3912143 185.98884,11.6073571 L185.98884,19.5269286 L182.32944,19.5269286 L182.32944,11.6073571 C182.32944,10.1210714 181.58184,9.12110714 180.16644,9.12110714 C179.04444,9.12110714 177.97584,9.93164286 177.57564,11.2023929 L177.57564,19.5269286 L173.91624,19.5269286 L173.91624,5.87714286 L177.57564,5.87714286 L177.57564,6.66157143 Z" id="Fill-14"></path>
                        <path d="M204.92724,9.20191786 C203.19144,9.20191786 201.64224,10.7428464 201.64224,12.742775 C201.64224,14.7427036 203.16444,16.2836321 204.92724,16.2836321 C206.69004,16.2836321 208.21284,14.7159893 208.21284,12.742775 C208.21284,10.7428464 206.69004,9.20191786 204.92724,9.20191786 M204.92724,19.7431321 C201.05424,19.7431321 197.98284,16.580525 197.98284,12.742775 C197.98284,8.87770357 201.10764,5.74241786 204.92724,5.74241786 C208.77384,5.74241786 211.87224,8.905025 211.87224,12.742775 C211.87224,16.5538107 208.80084,19.7431321 204.92724,19.7431321" id="Fill-15"></path>
                        <path d="M222.93048,18.4996429 C222.55668,18.8511786 221.56788,19.6623214 219.51168,19.6623214 C216.44028,19.6623214 215.66568,17.6885 215.66568,16.1481786 L215.66568,8.87764286 L213.95568,8.87764286 L213.95568,5.85042857 L215.66568,5.85042857 L215.66568,0.607142857 L219.32448,0.607142857 L219.32448,5.85042857 L222.77028,5.85042857 L222.77028,8.87764286 L219.32448,8.87764286 L219.32448,15.0941786 C219.32448,15.878 219.35148,16.5804643 220.31328,16.5804643 C220.95408,16.5804643 221.35488,16.4183571 221.70168,16.1214643 L222.93048,18.4996429 Z" id="Fill-16"></path>
                        <path d="M232.9444,9.52458571 C231.208,9.52458571 229.6588,11.0655143 229.6588,13.0654429 C229.6588,15.0653714 231.1816,16.6063 232.9444,16.6063 C234.7072,16.6063 236.23,15.0386571 236.23,13.0654429 C236.23,11.0655143 234.7072,9.52458571 232.9444,9.52458571 M232.9444,20.0658 C229.0714,20.0658 226,16.9031929 226,13.0654429 C226,9.20037143 229.1248,6.06508571 232.9444,6.06508571 C236.791,6.06508571 239.8894,9.22769286 239.8894,13.0654429 C239.8894,16.8764786 236.8174,20.0658 232.9444,20.0658" id="Fill-17"></path>
                    </g>
                </g>
            </g>
        </g>
    </g>
</svg>